…
untidyfert<-Tidydata%>% pivot_wider(names_from = "Age_Group", values_from = "mean_oocytes")
untidyfert

## # A tibble: 3 x 6
##   sd_FSH count se_FSH Forties Thirties Twenties
##    <dbl> <int>  <dbl>   <dbl>    <dbl>    <dbl>
## 1   2.34    50  0.330     9.3     NA       NA  
## 2   1.84   248  0.117    NA       12.3     NA  
## 3   1.37    35  0.231    NA       NA       11.9

tidyfert <-untidyfert%>%pivot_longer(c("Forties","Thirties", "Twenties"), names_to="Age_Group", values_to="mean_Oocytes")%>%na.omit()
tidyfert

## # A tibble: 3 x 5
##   sd_FSH count se_FSH Age_Group mean_Oocytes
##    <dbl> <int>  <dbl> <chr>            <dbl>
## 1   2.34    50  0.330 Forties            9.3
## 2   1.84   248  0.117 Thirties          12.3
## 3   1.37    35  0.231 Twenties          11.9

Initially both of my datasets were tidy; however, to demonstrate my tidying skills I used pivot_wider to untidy my summary statistics of mean oocytes, the standard deviation of FSH, and the standard error of FSH. The summary statistics were taken from my joined dataset, and I converted the numeric “Age” variable to become a categorical “Age_Group” variable in order to group the data by the three age groups of women feritility, “twenties”, “thirties”,“forties”. Next, I used pivot_longer to tidy my dataset of the summary statistics. I named the newly tidy dataset “tidyfert”.

#Joining
Fertility_join<-Fertility1%>%full_join(Fertility2, by="ID")%>%glimpse()

## Observations: 333
## Variables: 11
## $ Age        <int> 40, 37, 40, 40, 30, 29, 31, 33, 36, 35, 25, 39, 35, 30, 37…
## $ LowAFC     <int> 40, 41, 38, 36, 36, 35, 24, 28, 30, 32, 27, 32, 31, 18, 29…
## $ MeanAFC    <dbl> 51.5, 41.0, 41.0, 37.5, 36.0, 35.0, 35.0, 34.0, 33.0, 32.0…
## $ FSH        <dbl> 5.3, 7.1, 4.9, 3.9, 4.0, 3.9, 3.8, 4.3, 4.9, 3.7, 5.0, 5.3…
## $ E2         <int> 45, 53, 40, 26, 49, 67, 49, 20, 60, 36, 20, 37, 30, 33, 40…
## $ MaxE2      <int> 1427, 802, 4533, 1804, 2526, 3812, 1087, 1615, 1879, 2009,…
## $ ID         <int> 1, 2, 3, 4, 5, 6, 7, 8, 9, 10, 11, 12, 13, 14, 15, 16, 17,…
## $ MaxDailyGn <dbl> 300.0, 225.0, 450.0, 300.0, 150.0, 150.0, 262.5, 375.0, 30…
## $ TotalGn    <dbl> 2700.0, 1800.0, 4850.0, 2700.0, 1500.0, 975.0, 2512.5, 307…
## $ Oocytes    <int> 25, 7, 27, 9, 19, 19, 13, 15, 23, 26, 22, 22, 7, 27, 12, 1…
## $ Embryos    <int> 13, 6, 15, 4, 12, 16, 9, 9, 10, 8, 13, 18, 5, 18, 9, 2, 8,…

First, I had to match the sample number of each woman observed in each datasets by mutating a new column in both datasets labeled as “ID” for each observation. Next, I used the select function to delete an extraneous column of MaxE2 in the second dataset.These alterations are shown in the section of my importation of the datasets above. After cleaning the datasets, I decided to join the two fertility datasets by using full_join by “ID”. By using full_join, I was able to retain all all rows and columns of both datasets. After joining, my new dataset contained all 11 unique variables. I thought that both datasets contained equally valuable data pertaining to different variables of fertility. For this reason, I did not use a right_join or left_join that would prioritize just one of the datasets. The completely newly joined dataset was named “Fertility_join”.

#Wrangling
Fertility_join%>%filter(Age=="37")

##   Age LowAFC MeanAFC FSH E2 MaxE2  ID MaxDailyGn TotalGn Oocytes Embryos
## 1  37     41      41 7.1 53   802   2        225  1800.0       7       6
## 2  37     29      29 4.9 40  1840  15        225  1425.0      12       9
## 3  37     20      28 5.2 47   692  18        225  1800.0       9       4
## 4  37     18      27 5.7 46  2427  19        225  2300.0      25      15
## 5  37     22      22 3.6 19  1869  39        225  1125.0      20      10
## 6  37     14      18 6.3 34  1116  76        450  4050.0       7       5
## 7  37     16      17 3.6 31  1357  79        225  1650.0      10       8
## 8  37     16      16 6.3 53  2737  90        150  1162.5      17       5
## 9  37     13      15 3.7 27  1956 110        300  2700.0      14      13
##  [ reached 'max' / getOption("max.print") -- omitted 11 rows ]
…
